<?xml version="1.0" encoding="UTF-8" standalone="no"?>
<!-- Created with Inkscape (http://www.inkscape.org/) -->

<svg
   xmlns:dc="http://purl.org/dc/elements/1.1/"
   xmlns:cc="http://creativecommons.org/ns#"
   xmlns:rdf="http://www.w3.org/1999/02/22-rdf-syntax-ns#"
   xmlns:svg="http://www.w3.org/2000/svg"
   xmlns="http://www.w3.org/2000/svg"
   xmlns:sodipodi="http://sodipodi.sourceforge.net/DTD/sodipodi-0.dtd"
   xmlns:inkscape="http://www.inkscape.org/namespaces/inkscape"
   width="210mm"
   height="297mm"
   viewBox="0 0 210 297"
   version="1.1"
   id="svg8"
   inkscape:version="0.92.4 (5da689c313, 2019-01-14)"
   sodipodi:docname="drawing.svg">
  <defs
     id="defs2" />
  <sodipodi:namedview
     id="base"
     pagecolor="#ffffff"
     bordercolor="#666666"
     borderopacity="1.0"
     inkscape:pageopacity="0.0"
     inkscape:pageshadow="2"
     inkscape:zoom="7.919596"
     inkscape:cx="592.67509"
     inkscape:cy="993.44002"
     inkscape:document-units="mm"
     inkscape:current-layer="layer1"
     showgrid="false"
     inkscape:window-width="2560"
     inkscape:window-height="1315"
     inkscape:window-x="-13"
     inkscape:window-y="-13"
     inkscape:window-maximized="1" />
  <metadata
     id="metadata5">
    <rdf:RDF>
      <cc:Work
         rdf:about="">
        <dc:format>image/svg+xml</dc:format>
        <dc:type
           rdf:resource="http://purl.org/dc/dcmitype/StillImage" />
        <dc:title />
      </cc:Work>
    </rdf:RDF>
  </metadata>
  <g
     inkscape:label="Layer 1"
     inkscape:groupmode="layer"
     id="layer1">
    <path
       style="opacity:1;fill:none;fill-opacity:0.96862745;stroke:#000000;stroke-width:2.64583325;stroke-linecap:butt;stroke-linejoin:round;stroke-miterlimit:4;stroke-dasharray:none;stroke-dashoffset:78.04724884;stroke-opacity:1;paint-order:markers fill stroke"
       id="path4749"
       sodipodi:type="arc"
       sodipodi:cx="-22.800245"
       sodipodi:cy="3.2707875"
       sodipodi:rx="17.290182"
       sodipodi:ry="18.17433"
       sodipodi:start="6.2810021"
       sodipodi:end="3.1276513"
       d="M -5.5101044,3.2311092 A 17.290182,18.17433 0 0 1 -22.660848,21.444527 17.290182,18.17433 0 0 1 -40.088747,3.524154 l 17.288502,-0.2533665 z" />
    <path
       style="fill:none;stroke:#000000;stroke-width:0.22289118px;stroke-linecap:butt;stroke-linejoin:miter;stroke-opacity:1"
       d="m -7.7508133,56.074261 c -19.2335697,13.317547 -38.8256167,18.569555 -59.4763957,0 10.885258,18.985058 38.388336,22.309179 59.4763957,0 z"
       id="path4755"
       inkscape:connector-curvature="0"
       sodipodi:nodetypes="ccc" />
    <path
       style="fill:none;stroke:#000000;stroke-width:0.17465951px;stroke-linecap:butt;stroke-linejoin:miter;stroke-opacity:1"
       d="M -4.7476935,32.116038 H -65.793428 c 7.571749,13.114655 48.398718,12.647011 61.0457345,0 z"
       id="path4755-6"
       inkscape:connector-curvature="0"
       sodipodi:nodetypes="ccc" />
    <path
       style="fill:none;stroke:#000000;stroke-width:1.07102215;stroke-linecap:round;stroke-linejoin:miter;stroke-miterlimit:4;stroke-dasharray:none;stroke-opacity:1"
       d="m 248.4045,8.8666265 c 0,0 -4.30486,0.5340199 -5.86663,-2.776601 -2.77325,-5.87868571 -16.5675,-7.2446564 -18.8208,9.5526135 -0.099,15.817832 3.83835,21.161622 8.19251,22.617749 2.85471,0.954679 5.17058,23.101795 8.29787,22.570437 2.02406,-0.343904 3.18183,-11.767692 5.09909,-11.456446 1.91728,-0.31756 3.07505,11.106234 5.0991,11.450131 3.12729,0.531357 5.44316,-21.615757 8.29788,-22.570436 4.35416,-1.456127 8.29154,-6.799917 8.1925,-22.61775 -2.2533,-16.7972695 -14.95171,-16.49295272 -17.23469,-10.4070827 -0.28098,0.7490325 -2.16248,3.1443469 -4.20096,1.3825971"
       id="path4798-4"
       inkscape:connector-curvature="0"
       sodipodi:nodetypes="cscsscsscsc" />
    <path
       style="fill:#ffffff;fill-opacity:1;stroke:#000000;stroke-width:0.6363337;stroke-linecap:round;stroke-linejoin:miter;stroke-miterlimit:4;stroke-dasharray:none;stroke-opacity:1"
       d="m 240.85297,72.590226 c -2.2727,0.904867 -2.67766,-1.167186 -3.82945,-2.341268 -12.77125,-8.220518 -15.39538,16.368332 -6.16097,19.805185 -1.18444,0.567211 2.84151,18.566747 4.69954,18.251047 1.20257,-0.20433 2.12097,-11.832738 3.26009,-11.647815 1.13913,-0.188676 1.827,11.516575 3.02956,11.720905 1.85804,0.3157 7.42543,-17.760679 4.93008,-18.32789 12.34115,-6.408404 1.73462,-28.499182 -5.3723,-19.621268 -0.16694,0.445028 -1.66516,1.759499 -2.8763,0.712779"
       id="path4798-9"
       inkscape:connector-curvature="0"
       sodipodi:nodetypes="cccscsccc" />
    <path
       style="fill:#ffffff;fill-opacity:1;stroke:#000000;stroke-width:0.67699397;stroke-linecap:butt;stroke-linejoin:miter;stroke-miterlimit:4;stroke-dasharray:none;stroke-opacity:1"
       d="m 252.14393,82.753016 c 21.02993,-27.218939 -38.20244,12.713842 -26.74518,-1.73956 -12.74366,13.556175 37.60899,-10.461437 26.74518,1.73956 z"
       id="path4880-2-39"
       inkscape:connector-curvature="0"
       sodipodi:nodetypes="ccc" />
    <path
       style="fill:#ffffff;fill-opacity:1;stroke:#000000;stroke-width:0.67699397;stroke-linecap:butt;stroke-linejoin:miter;stroke-miterlimit:4;stroke-dasharray:none;stroke-opacity:1"
       d="m 246.31075,98.825663 c 16.68303,-19.720532 -26.13978,13.691897 -14.68252,-0.761507 -12.74366,13.556174 25.54633,-11.439492 14.68252,0.761507 z"
       id="path4880-2-0-9"
       inkscape:connector-curvature="0"
       sodipodi:nodetypes="ccc" />
    <path
       style="fill:#ffffff;fill-opacity:1;stroke:#000000;stroke-width:0.67699397;stroke-linecap:butt;stroke-linejoin:round;stroke-miterlimit:4;stroke-dasharray:none;stroke-opacity:1"
       d="m 244.51973,108.48896 c 0.13942,-0.32317 2.6198,-4.36127 2.71679,-4.6242 2.68271,-7.271815 -10.39049,7.84604 -6.62222,0.8191 -4.79056,6.63201 5.78755,-3.56657 6.11892,-0.85659 0.0202,0.165 -2.1501,4.39334 -2.21349,4.66169 z"
       id="path4880-2-3-8"
       inkscape:connector-curvature="0"
       sodipodi:nodetypes="cscsc" />
    <path
       style="fill:#ffffff;fill-opacity:1;stroke:#000000;stroke-width:0.6431073;stroke-linecap:round;stroke-linejoin:miter;stroke-miterlimit:4;stroke-dasharray:none;stroke-opacity:1"
       d="m 279.70201,70.655741 c -2.2969,0.914499 -2.70617,-1.179611 -3.87021,-2.366191 -12.90721,-8.308023 -15.55927,16.542569 -6.22656,20.016005 -1.19704,0.573248 2.87176,18.764385 4.74957,18.445325 1.21537,-0.20651 2.14355,-11.958697 3.2948,-11.771806 1.15125,-0.190678 1.84644,11.639176 3.0618,11.845666 1.87782,0.31907 7.50447,-17.94973 4.98255,-18.522974 12.47253,-6.476622 1.75309,-28.80255 -5.42948,-19.830134 -0.16872,0.449765 -1.68289,1.778229 -2.90692,0.720367"
       id="path4798-45"
       inkscape:connector-curvature="0"
       sodipodi:nodetypes="cccscsccc" />
    <path
       style="fill:#000000;fill-opacity:1;stroke:#000000;stroke-width:0.68420041;stroke-linecap:butt;stroke-linejoin:miter;stroke-miterlimit:4;stroke-dasharray:none;stroke-opacity:1"
       d="m 291.11316,80.926711 c 21.25378,-27.508677 -38.6091,12.849179 -27.02988,-1.758078 -12.87931,13.70048 38.00933,-10.572796 27.02988,1.758078 z"
       id="path4880-2-7"
       inkscape:connector-curvature="0"
       sodipodi:nodetypes="ccc" />
    <path
       style="fill:#000000;fill-opacity:1;stroke:#000000;stroke-width:0.68420041;stroke-linecap:butt;stroke-linejoin:miter;stroke-miterlimit:4;stroke-dasharray:none;stroke-opacity:1"
       d="m 285.21789,97.170441 c 16.86062,-19.930446 -26.41803,13.837649 -14.83881,-0.769613 -12.87932,13.700482 25.81826,-11.561257 14.83881,0.769613 z"
       id="path4880-2-0-94"
       inkscape:connector-curvature="0"
       sodipodi:nodetypes="ccc" />
    <path
       style="fill:none;stroke:#000000;stroke-width:1.54026961;stroke-linecap:butt;stroke-linejoin:miter;stroke-miterlimit:4;stroke-dasharray:none;stroke-opacity:1"
       d="m 182.20352,-10.967029 6.91433,2.2089253 -17.84323,4.001868 10.56384,-13.0172173 z"
       id="path4973-7"
       inkscape:connector-curvature="0"
       sodipodi:nodetypes="ccccc" />
    <path
       style="fill:#000000;fill-opacity:1;stroke:#000000;stroke-width:0.14382941px;stroke-linecap:butt;stroke-linejoin:miter;stroke-opacity:1"
       d="m 133.03105,-15.370002 -0.0493,2.72132 4.91119,5.3299998 19.52156,-9.8121698 -0.0528,-1.414325 -19.30818,9.1389948 z"
       id="path5015"
       inkscape:connector-curvature="0"
       sodipodi:nodetypes="ccccccc" />
    <path
       style="fill:#000000;fill-opacity:1;stroke:#000000;stroke-width:0.14382941px;stroke-linecap:butt;stroke-linejoin:miter;stroke-opacity:1"
       d="m 137.40383,-14.303542 -0.0493,2.72131 4.91119,5.3299998 19.52155,-9.8121698 -0.0528,-1.41432 -19.30818,9.1389898 z"
       id="path5015-5"
       inkscape:connector-curvature="0"
       sodipodi:nodetypes="ccccccc" />
    <path
       style="fill:#ffffff;fill-opacity:1;stroke:#000000;stroke-width:0.77034831;stroke-linecap:round;stroke-linejoin:miter;stroke-miterlimit:4;stroke-dasharray:none;stroke-opacity:1"
       d="m 328.839,74.588073 c -2.75134,1.095435 -3.24159,-1.413002 -4.63594,-2.83435 -15.46094,-9.951795 -18.63772,19.815573 -7.4585,23.976236 -1.43389,0.68667 3.43994,22.476981 5.68928,22.094801 1.45584,-0.24736 2.56766,-14.32476 3.94668,-14.10089 1.37903,-0.22841 2.21177,13.94201 3.6676,14.18937 2.24935,0.38219 8.98926,-21.501151 5.96837,-22.187821 14.94026,-7.758039 2.09994,-34.501229 -6.50373,-23.753588 -0.2021,0.538752 -2.01585,2.130057 -3.48205,0.862893"
       id="path4798-0"
       inkscape:connector-curvature="0"
       sodipodi:nodetypes="cccscsccc" />
    <path
       style="opacity:1;fill:#df7c7c;fill-opacity:1;stroke:#000000;stroke-width:0.90737051;stroke-linecap:butt;stroke-linejoin:round;stroke-miterlimit:4;stroke-dasharray:none;stroke-dashoffset:78.04724884;stroke-opacity:1;paint-order:markers fill stroke"
       d="m 343.40957,78.843574 6.00371,-7.565854 C 332.976,51.507943 311.05207,58.254589 302.85549,79.07177 c 5.36226,-21.946861 34.6817,-14.069626 40.55408,-0.228196 z"
       id="path5079-9"
       inkscape:connector-curvature="0"
       sodipodi:nodetypes="cccc" />
    <path
       style="opacity:1;fill:#df7c7c;fill-opacity:1;stroke:#000000;stroke-width:0.89116651;stroke-linecap:butt;stroke-linejoin:round;stroke-miterlimit:4;stroke-dasharray:none;stroke-dashoffset:78.04724884;stroke-opacity:1;paint-order:markers fill stroke"
       d="m 313.87955,75.493585 -9.55407,-1.366301 c -8.9025,23.266195 7.90223,38.326886 30.02874,35.133906 -21.68767,6.10554 -29.52551,-22.186255 -20.47467,-33.767605 z"
       id="path5079-5-4"
       inkscape:connector-curvature="0"
       sodipodi:nodetypes="cccc" />
    <path
       style="opacity:1;fill:#df7c7c;fill-opacity:1;stroke:#000000;stroke-width:0.92006403;stroke-linecap:butt;stroke-linejoin:round;stroke-miterlimit:4;stroke-dasharray:none;stroke-dashoffset:78.04724884;stroke-opacity:1;paint-order:markers fill stroke"
       d="m 324.1799,101.43448 3.6854,8.89696 c 26.30357,-4.30888 31.61748,-26.456476 17.15774,-43.797213 16.94634,15.468922 -5.35231,36.717903 -20.84314,34.900253 z"
       id="path5079-55-1"
       inkscape:connector-curvature="0"
       sodipodi:nodetypes="cccc" />
    <rect
       style="opacity:1;fill:#ff0000;fill-opacity:1;stroke:none;stroke-width:1.88452137;stroke-linecap:butt;stroke-linejoin:round;stroke-miterlimit:4;stroke-dasharray:none;stroke-dashoffset:78.04724884;stroke-opacity:1;paint-order:markers fill stroke"
       id="rect5168-9"
       width="75.433029"
       height="66.683746"
       x="369.65335"
       y="62.404175" />
    <g
       transform="translate(313.75485,23.575391)"
       id="g5166-1"
       style="stroke:#000000;stroke-opacity:1">
      <path
         sodipodi:nodetypes="cccscsccc"
         inkscape:connector-curvature="0"
         id="path4798-2"
         d="m 94.651774,57.648648 c -2.75134,1.095435 -3.24159,-1.413002 -4.63594,-2.83435 -15.460941,-9.951795 -18.637717,19.815573 -7.4585,23.976241 -1.43389,0.686667 3.43994,22.476971 5.68928,22.094791 1.45584,-0.24736 2.56766,-14.32476 3.94668,-14.100886 1.37903,-0.228414 2.21177,13.942006 3.6676,14.189366 2.24935,0.38219 8.989256,-21.501146 5.968366,-22.187812 14.94026,-7.758043 2.09994,-34.501233 -6.503726,-23.753592 -0.2021,0.538752 -2.01585,2.130057 -3.48205,0.862893"
         style="fill:#ffffff;fill-opacity:1;stroke:#000000;stroke-width:0.77034831;stroke-linecap:round;stroke-linejoin:miter;stroke-miterlimit:4;stroke-dasharray:none;stroke-opacity:1" />
      <path
         inkscape:connector-curvature="0"
         id="path4965-4"
         d="M 134.97111,44.430296 Z"
         style="fill:none;stroke:#000000;stroke-width:0.26458332px;stroke-linecap:butt;stroke-linejoin:miter;stroke-opacity:1" />
      <path
         inkscape:connector-curvature="0"
         id="path4967-7"
         d="m 134.97111,44.430296 v 0"
         style="fill:none;stroke:#000000;stroke-width:0.26458332px;stroke-linecap:butt;stroke-linejoin:miter;stroke-opacity:1" />
      <path
         inkscape:connector-curvature="0"
         id="path4969-6"
         d="M 134.97111,44.430296 Z"
         style="fill:none;stroke:#000000;stroke-width:0.26458332px;stroke-linecap:butt;stroke-linejoin:miter;stroke-opacity:1" />
      <path
         inkscape:connector-curvature="0"
         id="path4971-0"
         d="M 134.97111,44.430296 Z"
         style="fill:none;stroke:#000000;stroke-width:0.26458332px;stroke-linecap:butt;stroke-linejoin:miter;stroke-opacity:1" />
      <path
         sodipodi:nodetypes="cccc"
         inkscape:connector-curvature="0"
         id="path5079-55-0"
         d="m 70.122885,74.650838 1.428811,10.277341 c 20.729261,16.755351 41.860444,3.968198 41.160744,-14.090072 -0.2571,22.943407 -33.630931,16.580369 -42.589555,3.812731 z"
         style="opacity:1;fill:#ffffff;fill-opacity:1;stroke:#000000;stroke-width:0.92006403;stroke-linecap:butt;stroke-linejoin:round;stroke-miterlimit:4;stroke-dasharray:none;stroke-dashoffset:78.04724884;stroke-opacity:1;paint-order:markers fill stroke" />
      <path
         sodipodi:nodetypes="cccc"
         inkscape:connector-curvature="0"
         id="path5079-55-18-7"
         d="M 112.70941,63.058654 111.2806,52.781313 C 90.551335,36.025964 69.420149,48.813115 70.119847,66.871385 70.376948,43.927978 103.75078,50.291017 112.70941,63.058654 Z"
         style="opacity:1;fill:#ffffff;fill-opacity:1;stroke:#000000;stroke-width:0.92006403;stroke-linecap:butt;stroke-linejoin:round;stroke-miterlimit:4;stroke-dasharray:none;stroke-dashoffset:78.04724884;stroke-opacity:1;paint-order:markers fill stroke" />
    </g>
    <path
       style="fill:#000000;fill-opacity:1;stroke:none;stroke-width:0.29976368;stroke-linecap:round;stroke-linejoin:miter;stroke-miterlimit:4;stroke-dasharray:none;stroke-opacity:1"
       d="m 204.82227,0.16617684 c -0.36265,-0.005802 -0.75938,0.0498996 -1.19063,0.17621647 -1.38752,0.456996 -1.04716,0.0947407 -2.06602,-0.0847492 -5.63371,-0.95800914 -4.95117,7.12830329 -3.20652,8.90384919 0.0514,0.03643 0.16135,0.056404 0.14417,0.6475056 -0.099,0.1127564 1.52225,8.5209551 2.37402,8.3762331 0.56651,-0.09625 0.99869,-5.574119 1.53531,-5.487004 0.53661,-0.08888 0.8608,5.424856 1.4273,5.52111 0.64288,0.109233 1.63463,-3.430847 1.96551,-5.968464 -0.48037,2.330472 -1.24312,4.720721 -1.82288,4.631078 -0.55959,-0.08652 -0.87968,-5.043416 -1.40974,-4.963521 -0.53008,-0.07831 -0.95762,4.845996 -1.51722,4.932515 -0.84138,0.130092 -2.53795,-7.4007491 -2.34456,-7.5292559 0.11628,-0.320452 -0.0696,-0.5019905 -0.14262,-0.5818765 -1.72337,-1.5960499 -2.39775,-8.86532346 3.16725,-8.00416266 1.00644,0.16135006 0.6706,0.48727726 2.04121,0.0764813 1.93571,-0.51596316 3.16466,0.27884626 3.73156,1.63090806 -0.41306,-1.3285647 -1.29879,-2.25466591 -2.68614,-2.27686346 z"
       id="path4798-3"
       inkscape:connector-curvature="0"
       sodipodi:nodetypes="sccccccccccccccccs" />
    <rect
       style="opacity:1;fill:#000000;fill-opacity:1;stroke:none;stroke-width:0.41638443;stroke-linecap:round;stroke-linejoin:miter;stroke-miterlimit:4;stroke-dasharray:none;stroke-dashoffset:78.04724884;stroke-opacity:1;paint-order:markers fill stroke"
       id="rect4779"
       width="90.069824"
       height="29.33283"
       x="119.66994"
       y="23.516459" />
    <path
       style="fill:#ffffff;fill-opacity:1;stroke:#c69d9d;stroke-width:0.02645833;stroke-linecap:butt;stroke-linejoin:miter;stroke-miterlimit:4;stroke-dasharray:none;stroke-opacity:1"
       d="M 166.75764,40.047449 Z"
       id="path4965"
       inkscape:connector-curvature="0"
       inkscape:export-xdpi="373.38"
       inkscape:export-ydpi="373.38" />
    <path
       style="fill:#ffffff;fill-opacity:1;stroke:#c69d9d;stroke-width:0.02645833;stroke-linecap:butt;stroke-linejoin:miter;stroke-miterlimit:4;stroke-dasharray:none;stroke-opacity:1"
       d="m 166.75764,40.047449 v 0"
       id="path4967"
       inkscape:connector-curvature="0"
       inkscape:export-xdpi="373.38"
       inkscape:export-ydpi="373.38" />
    <path
       style="fill:#ffffff;fill-opacity:1;stroke:#c69d9d;stroke-width:0.02645833;stroke-linecap:butt;stroke-linejoin:miter;stroke-miterlimit:4;stroke-dasharray:none;stroke-opacity:1"
       d="M 166.75764,40.047449 Z"
       id="path4969"
       inkscape:connector-curvature="0"
       inkscape:export-xdpi="373.38"
       inkscape:export-ydpi="373.38" />
    <path
       style="fill:#ffffff;fill-opacity:1;stroke:#c69d9d;stroke-width:0.02645833;stroke-linecap:butt;stroke-linejoin:miter;stroke-miterlimit:4;stroke-dasharray:none;stroke-opacity:1"
       d="M 166.75764,40.047449 Z"
       id="path4971"
       inkscape:connector-curvature="0"
       inkscape:export-xdpi="373.38"
       inkscape:export-ydpi="373.38" />
    <path
       style="fill:#ffffff;fill-opacity:1;stroke:none;stroke-width:0.44979167;stroke-linecap:round;stroke-linejoin:miter;stroke-miterlimit:4;stroke-dasharray:none;stroke-opacity:1"
       d="m 134.94426,25.674374 c -0.81508,-0.02715 -1.65822,0.380122 -2.4507,1.370088 -1.61812,1.833169 -1.70266,0.878613 -2.84557,-0.116878 -8.28573,-5.333301 -9.98822,10.619377 -3.99713,12.849137 -0.76843,0.367993 1.84344,12.045985 3.04889,11.841168 0.1597,-0.02713 0.31154,-0.374712 0.45861,-0.893673 -0.0618,0.104786 -0.1248,0.170425 -0.18896,0.181206 -1.1608,0.195063 -3.676,-10.926694 -2.93602,-11.277169 -5.76916,-2.123601 -4.12956,-17.316853 3.84923,-12.237464 1.10057,0.948103 1.18172,1.857314 2.73989,0.111422 2.42648,-2.997906 5.50587,-0.28072 6.54144,3.446616 -0.62312,-2.855135 -2.34687,-5.212081 -4.21968,-5.274453 z m 0.0551,18.032631 c 0.11029,2.730058 -1.1261,7.407263 -2.10058,7.243503 -0.75129,-0.126253 -1.18078,-7.358714 -1.89245,-7.242143 -0.10806,-0.01735 -0.21307,0.135314 -0.31589,0.404335 0.041,-0.03973 0.0825,-0.0585 0.12435,-0.05169 0.73904,-0.122407 1.18548,7.4717 1.96568,7.604263 1.03635,0.176088 2.47817,-5.295924 2.21889,-7.958268 z"
       id="path4798"
       inkscape:connector-curvature="0"
       inkscape:export-xdpi="373.38"
       inkscape:export-ydpi="373.38"
       sodipodi:nodetypes="cccccccccccccsccccc" />
    <path
       sodipodi:type="star"
       style="opacity:1;fill:none;fill-opacity:1;stroke:#ffffff;stroke-width:0.32503566;stroke-linecap:round;stroke-linejoin:miter;stroke-miterlimit:4;stroke-dasharray:none;stroke-dashoffset:78.04724884;stroke-opacity:1;paint-order:markers fill stroke"
       id="path4813"
       sodipodi:sides="12"
       sodipodi:cx="137.34623"
       sodipodi:cy="33.981255"
       sodipodi:r1="3.1819279"
       sodipodi:r2="3.5354755"
       sodipodi:arg1="0.80179014"
       sodipodi:arg2="1.0635895"
       inkscape:flatsided="false"
       inkscape:rounded="0.24"
       inkscape:randomized="0"
       d="m 139.55902,36.267795 c -0.16285,0.157599 -0.29738,0.693755 -0.49547,0.803835 -0.19809,0.11008 -0.72442,-0.05884 -0.94426,-0.0038 -0.21983,0.05506 -0.60441,0.452123 -0.831,0.448408 -0.2266,-0.0037 -0.59795,-0.413171 -0.81586,-0.475406 -0.21792,-0.06224 -0.7495,0.08934 -0.94388,-0.02717 -0.19438,-0.116513 -0.31125,-0.656791 -0.46885,-0.819644 -0.1576,-0.162852 -0.69376,-0.297374 -0.80384,-0.495467 -0.11008,-0.198093 0.0588,-0.724425 0.004,-0.944259 -0.055,-0.219834 -0.45212,-0.604412 -0.4484,-0.831005 0.004,-0.226594 0.41317,-0.59795 0.4754,-0.815861 0.0622,-0.217911 -0.0893,-0.749497 0.0272,-0.943875 0.11652,-0.194379 0.65679,-0.311254 0.81965,-0.468854 0.16285,-0.157599 0.29737,-0.693755 0.49546,-0.803835 0.1981,-0.11008 0.72443,0.05884 0.94426,0.0038 0.21984,-0.05506 0.60441,-0.452123 0.83101,-0.448408 0.22659,0.0037 0.59795,0.413171 0.81586,0.475406 0.21791,0.06224 0.7495,-0.08934 0.94387,0.02717 0.19438,0.116513 0.31126,0.656791 0.46886,0.819644 0.1576,0.162852 0.69375,0.297374 0.80383,0.495467 0.11008,0.198093 -0.0588,0.724425 -0.004,0.944259 0.0551,0.219834 0.45212,0.604412 0.44841,0.831005 -0.004,0.226594 -0.41317,0.59795 -0.47541,0.815861 -0.0622,0.217911 0.0893,0.749497 -0.0272,0.943876 -0.11651,0.194378 -0.65679,0.311254 -0.81964,0.468853 z"
       inkscape:transform-center-x="-0.10804856"
       inkscape:transform-center-y="0.080877264"
       inkscape:export-xdpi="373.38"
       inkscape:export-ydpi="373.38" />
    <path
       style="fill:none;stroke:#ffffff;stroke-width:0.13695125;stroke-linecap:butt;stroke-linejoin:miter;stroke-miterlimit:4;stroke-dasharray:none;stroke-opacity:1"
       d="m 135.31133,36.928129 v 6.501 l 2,-1.737204 2,1.737204 v -6.501"
       id="path4829"
       inkscape:connector-curvature="0"
       sodipodi:nodetypes="ccccc"
       inkscape:export-xdpi="373.38"
       inkscape:export-ydpi="373.38" />
    <path
       style="fill:#ae5151;fill-opacity:1;stroke:none;stroke-width:0.29901165;stroke-linecap:round;stroke-linejoin:miter;stroke-miterlimit:4;stroke-dasharray:none;stroke-opacity:1"
       d="m 232.03984,-23.32322 c -6.01628,-3.85311 -7.25245,7.672145 -2.90231,9.28306 -0.55797,0.265863 1.33857,8.702578 2.21385,8.5546062 0.56651,-0.095768 0.99915,-5.5462232 1.53577,-5.4595452 0.53661,-0.08843 0.86066,5.3980311 1.42716,5.4938027 0.87528,0.1479757 3.49797,-8.3247597 2.32245,-8.5906207 5.81367,-3.003739 0.81715,-13.3581 -2.53077,-9.196856 -1.17491,1.324395 -1.23628,0.63476 -2.06615,-0.08445 z"
       id="path4798-3-4"
       inkscape:connector-curvature="0"
       sodipodi:nodetypes="ccscsccc" />
    <path
       style="fill:#ffffff;fill-opacity:1;stroke:none;stroke-width:0.25596768;stroke-linecap:round;stroke-linejoin:miter;stroke-miterlimit:4;stroke-dasharray:none;stroke-opacity:1"
       d="m 232.19009,-22.727271 c -4.99805,-3.398861 -6.025,6.767659 -2.41111,8.18866 -0.46353,0.234521 1.11203,7.6766141 1.83918,7.5460875 0.47062,-0.084484 0.83004,-4.8923675 1.27584,-4.8159075 0.4458,-0.07801 0.71499,4.7616456 1.18562,4.8461262 0.72715,0.1305312 2.90594,-7.3433372 1.92939,-7.5778562 4.82972,-2.649622 0.67884,-11.783286 -2.10247,-8.11262 -0.97605,1.168259 -1.02702,0.559928 -1.71645,-0.07449 z"
       id="path4798-5-6-4"
       inkscape:connector-curvature="0"
       sodipodi:nodetypes="ccscsccc" />
    <g
       id="g4893"
       transform="matrix(1.2089147,0,0,1.2089147,-61.292252,18.287372)">
      <path
         inkscape:export-ydpi="373.38"
         inkscape:export-xdpi="373.38"
         inkscape:transform-center-y="0.046773883"
         inkscape:transform-center-x="-0.062481186"
         d="m 223.19898,-9.1349356 c -0.0942,0.091144 -0.17198,0.4012198 -0.28654,0.4648823 -0.11456,0.063662 -0.41896,-0.03403 -0.54609,-0.00219 -0.12714,0.031842 -0.34955,0.2614763 -0.4806,0.259328 -0.13104,-0.00215 -0.34581,-0.2389494 -0.47184,-0.2749416 -0.12602,-0.035992 -0.43345,0.05167 -0.54587,-0.015713 -0.11241,-0.067383 -0.18,-0.3798424 -0.27115,-0.4740249 -0.0911,-0.094182 -0.40122,-0.1719805 -0.46488,-0.2865437 -0.0637,-0.1145632 0.034,-0.4189569 0.002,-0.5460934 -0.0318,-0.127137 -0.26148,-0.349549 -0.25933,-0.480595 0.002,-0.131046 0.23895,-0.345813 0.27494,-0.471837 0.036,-0.126025 -0.0517,-0.433457 0.0157,-0.545872 0.0674,-0.112415 0.37985,-0.180007 0.47403,-0.271152 0.0942,-0.09114 0.17198,-0.40122 0.28654,-0.464882 0.11456,-0.06366 0.41896,0.03403 0.5461,0.0022 0.12713,-0.03184 0.34954,-0.261476 0.48059,-0.259328 0.13105,0.0021 0.34581,0.238949 0.47184,0.274942 0.12602,0.03599 0.43345,-0.05167 0.54587,0.01571 0.11241,0.06738 0.18001,0.379842 0.27115,0.474025 0.0911,0.09418 0.40122,0.17198 0.46488,0.286543 0.0637,0.114563 -0.034,0.418957 -0.002,0.546094 0.0318,0.127136 0.26147,0.349549 0.25932,0.480595 -0.002,0.131046 -0.23895,0.345812 -0.27494,0.4718368 -0.036,0.1260246 0.0517,0.4334568 -0.0157,0.5458717 -0.0674,0.112415 -0.37984,0.1800075 -0.47403,0.2711519 z"
         inkscape:randomized="0"
         inkscape:rounded="0.24"
         inkscape:flatsided="false"
         sodipodi:arg2="1.0635895"
         sodipodi:arg1="0.80179014"
         sodipodi:r2="2.044672"
         sodipodi:r1="1.8402047"
         sodipodi:cy="-10.457311"
         sodipodi:cx="221.91927"
         sodipodi:sides="12"
         id="path4813-9"
         style="opacity:1;fill:none;fill-opacity:1;stroke:#000000;stroke-width:0.10753447;stroke-linecap:round;stroke-linejoin:miter;stroke-miterlimit:4;stroke-dasharray:none;stroke-dashoffset:78.04724884;stroke-opacity:1;paint-order:markers fill stroke"
         sodipodi:type="star" />
      <path
         inkscape:export-ydpi="373.38"
         inkscape:export-xdpi="373.38"
         sodipodi:nodetypes="ccccc"
         inkscape:connector-curvature="0"
         id="path4829-8"
         d="m 220.94004,-8.7530446 v 3.7597244 l 0.95905,-1.0046779 0.95905,1.0046779 v -3.7597244"
         style="fill:none;stroke:#000000;stroke-width:0.09791866;stroke-linecap:butt;stroke-linejoin:miter;stroke-miterlimit:4;stroke-dasharray:none;stroke-opacity:1" />
    </g>
    <path
       style="fill:#ffffff;fill-opacity:1;stroke:none;stroke-width:0.29976368;stroke-linecap:round;stroke-linejoin:miter;stroke-miterlimit:4;stroke-dasharray:none;stroke-opacity:1"
       d="m 150.77398,26.983698 c -0.36265,-0.0058 -0.75938,0.0499 -1.19063,0.176217 -1.38752,0.456996 -1.04716,0.09474 -2.06602,-0.08475 -5.63371,-0.95801 -4.95117,7.128303 -3.20652,8.903849 0.0514,0.03643 0.16135,0.0564 0.14417,0.647505 -0.099,0.112757 1.52225,8.520956 2.37402,8.376234 0.56651,-0.09625 0.99869,-5.574119 1.53531,-5.487004 0.53661,-0.08888 0.8608,5.424856 1.4273,5.52111 0.64288,0.109233 1.63463,-3.430847 1.96551,-5.968464 -0.48037,2.330472 -1.24312,4.720721 -1.82288,4.631078 -0.55959,-0.08652 -0.87968,-5.043416 -1.40974,-4.963521 -0.53008,-0.07831 -0.95762,4.845996 -1.51722,4.932515 -0.84138,0.130092 -2.53795,-7.40075 -2.34456,-7.529256 0.11628,-0.320452 -0.0696,-0.501991 -0.14262,-0.581877 -1.72337,-1.59605 -2.39775,-8.865323 3.16725,-8.004163 1.00644,0.16135 0.6706,0.487278 2.04121,0.07648 1.93571,-0.515963 3.16466,0.278846 3.73156,1.630908 -0.41306,-1.328565 -1.29879,-2.254666 -2.68614,-2.276864 z"
       id="path4798-3-2"
       inkscape:connector-curvature="0"
       sodipodi:nodetypes="sccccccccccccccccs" />
    <g
       id="g4893-8"
       transform="matrix(1.2089147,0,0,1.2089147,-115.34054,45.104894)"
       style="stroke:#ffffff;stroke-opacity:1">
      <path
         inkscape:export-ydpi="373.38"
         inkscape:export-xdpi="373.38"
         inkscape:transform-center-y="0.046773883"
         inkscape:transform-center-x="-0.062481186"
         d="m 223.19898,-9.1349356 c -0.0942,0.091144 -0.17198,0.4012198 -0.28654,0.4648823 -0.11456,0.063662 -0.41896,-0.03403 -0.54609,-0.00219 -0.12714,0.031842 -0.34955,0.2614763 -0.4806,0.259328 -0.13104,-0.00215 -0.34581,-0.2389494 -0.47184,-0.2749416 -0.12602,-0.035992 -0.43345,0.05167 -0.54587,-0.015713 -0.11241,-0.067383 -0.18,-0.3798424 -0.27115,-0.4740249 -0.0911,-0.094182 -0.40122,-0.1719805 -0.46488,-0.2865437 -0.0637,-0.1145632 0.034,-0.4189569 0.002,-0.5460934 -0.0318,-0.127137 -0.26148,-0.349549 -0.25933,-0.480595 0.002,-0.131046 0.23895,-0.345813 0.27494,-0.471837 0.036,-0.126025 -0.0517,-0.433457 0.0157,-0.545872 0.0674,-0.112415 0.37985,-0.180007 0.47403,-0.271152 0.0942,-0.09114 0.17198,-0.40122 0.28654,-0.464882 0.11456,-0.06366 0.41896,0.03403 0.5461,0.0022 0.12713,-0.03184 0.34954,-0.261476 0.48059,-0.259328 0.13105,0.0021 0.34581,0.238949 0.47184,0.274942 0.12602,0.03599 0.43345,-0.05167 0.54587,0.01571 0.11241,0.06738 0.18001,0.379842 0.27115,0.474025 0.0911,0.09418 0.40122,0.17198 0.46488,0.286543 0.0637,0.114563 -0.034,0.418957 -0.002,0.546094 0.0318,0.127136 0.26147,0.349549 0.25932,0.480595 -0.002,0.131046 -0.23895,0.345812 -0.27494,0.4718368 -0.036,0.1260246 0.0517,0.4334568 -0.0157,0.5458717 -0.0674,0.112415 -0.37984,0.1800075 -0.47403,0.2711519 z"
         inkscape:randomized="0"
         inkscape:rounded="0.24"
         inkscape:flatsided="false"
         sodipodi:arg2="1.0635895"
         sodipodi:arg1="0.80179014"
         sodipodi:r2="2.044672"
         sodipodi:r1="1.8402047"
         sodipodi:cy="-10.457311"
         sodipodi:cx="221.91927"
         sodipodi:sides="12"
         id="path4813-9-3"
         style="opacity:1;fill:none;fill-opacity:1;stroke:#ffffff;stroke-width:0.10753447;stroke-linecap:round;stroke-linejoin:miter;stroke-miterlimit:4;stroke-dasharray:none;stroke-dashoffset:78.04724884;stroke-opacity:1;paint-order:markers fill stroke"
         sodipodi:type="star" />
      <path
         inkscape:export-ydpi="373.38"
         inkscape:export-xdpi="373.38"
         sodipodi:nodetypes="ccccc"
         inkscape:connector-curvature="0"
         id="path4829-8-9"
         d="m 220.94004,-8.7530446 v 3.7597244 l 0.95905,-1.0046779 0.95905,1.0046779 v -3.7597244"
         style="fill:none;stroke:#ffffff;stroke-width:0.09791866;stroke-linecap:butt;stroke-linejoin:miter;stroke-miterlimit:4;stroke-dasharray:none;stroke-opacity:1" />
    </g>
    <path
       style="fill:#ffffff;fill-opacity:1;stroke:none;stroke-width:0.29976368;stroke-linecap:round;stroke-linejoin:miter;stroke-miterlimit:4;stroke-dasharray:none;stroke-opacity:1"
       d="m 191.66622,60.258754 c -0.36265,-0.0058 -0.75938,0.0499 -1.19063,0.176217 -1.38752,0.456996 -1.04716,0.09474 -2.06602,-0.08475 -5.63371,-0.95801 -4.95117,7.128303 -3.20652,8.903849 0.0514,0.03643 0.16135,0.0564 0.14417,0.647505 -0.099,0.112757 1.52225,8.520956 2.37402,8.376235 0.56651,-0.09625 0.99869,-5.57412 1.53531,-5.487004 0.53661,-0.08888 0.8608,5.424856 1.4273,5.521109 0.64288,0.109233 1.63463,-3.430847 1.96551,-5.968464 -0.48037,2.330472 -1.24312,4.720721 -1.82288,4.631078 -0.55959,-0.08652 -0.87968,-5.043416 -1.40974,-4.963521 -0.53008,-0.07831 -0.95762,4.845996 -1.51722,4.932516 -0.84138,0.130091 -2.53795,-7.400751 -2.34456,-7.529257 0.11628,-0.320452 -0.0696,-0.501991 -0.14262,-0.581877 -1.72337,-1.59605 -2.39775,-8.865323 3.16725,-8.004163 1.00644,0.16135 0.6706,0.487278 2.04121,0.07648 1.93571,-0.515963 3.16466,0.278846 3.73156,1.630908 -0.41306,-1.328565 -1.29879,-2.254666 -2.68614,-2.276864 z"
       id="path4798-3-2-3"
       inkscape:connector-curvature="0"
       sodipodi:nodetypes="sccccccccccccccccs"
       inkscape:export-xdpi="373.38"
       inkscape:export-ydpi="373.38" />
    <g
       id="g4893-8-3"
       transform="matrix(1.2089147,0,0,1.2089147,-74.448307,78.37995)"
       style="stroke:#ffffff;stroke-opacity:1"
       inkscape:export-xdpi="373.38"
       inkscape:export-ydpi="373.38">
      <path
         inkscape:export-ydpi="373.38"
         inkscape:export-xdpi="373.38"
         inkscape:transform-center-y="0.046773883"
         inkscape:transform-center-x="-0.062481186"
         d="m 223.19898,-9.1349356 c -0.0942,0.091144 -0.17198,0.4012198 -0.28654,0.4648823 -0.11456,0.063662 -0.41896,-0.03403 -0.54609,-0.00219 -0.12714,0.031842 -0.34955,0.2614763 -0.4806,0.259328 -0.13104,-0.00215 -0.34581,-0.2389494 -0.47184,-0.2749416 -0.12602,-0.035992 -0.43345,0.05167 -0.54587,-0.015713 -0.11241,-0.067383 -0.18,-0.3798424 -0.27115,-0.4740249 -0.0911,-0.094182 -0.40122,-0.1719805 -0.46488,-0.2865437 -0.0637,-0.1145632 0.034,-0.4189569 0.002,-0.5460934 -0.0318,-0.127137 -0.26148,-0.349549 -0.25933,-0.480595 0.002,-0.131046 0.23895,-0.345813 0.27494,-0.471837 0.036,-0.126025 -0.0517,-0.433457 0.0157,-0.545872 0.0674,-0.112415 0.37985,-0.180007 0.47403,-0.271152 0.0942,-0.09114 0.17198,-0.40122 0.28654,-0.464882 0.11456,-0.06366 0.41896,0.03403 0.5461,0.0022 0.12713,-0.03184 0.34954,-0.261476 0.48059,-0.259328 0.13105,0.0021 0.34581,0.238949 0.47184,0.274942 0.12602,0.03599 0.43345,-0.05167 0.54587,0.01571 0.11241,0.06738 0.18001,0.379842 0.27115,0.474025 0.0911,0.09418 0.40122,0.17198 0.46488,0.286543 0.0637,0.114563 -0.034,0.418957 -0.002,0.546094 0.0318,0.127136 0.26147,0.349549 0.25932,0.480595 -0.002,0.131046 -0.23895,0.345812 -0.27494,0.4718368 -0.036,0.1260246 0.0517,0.4334568 -0.0157,0.5458717 -0.0674,0.112415 -0.37984,0.1800075 -0.47403,0.2711519 z"
         inkscape:randomized="0"
         inkscape:rounded="0.24"
         inkscape:flatsided="false"
         sodipodi:arg2="1.0635895"
         sodipodi:arg1="0.80179014"
         sodipodi:r2="2.044672"
         sodipodi:r1="1.8402047"
         sodipodi:cy="-10.457311"
         sodipodi:cx="221.91927"
         sodipodi:sides="12"
         id="path4813-9-3-9"
         style="opacity:1;fill:none;fill-opacity:1;stroke:#ffffff;stroke-width:0.10753447;stroke-linecap:round;stroke-linejoin:miter;stroke-miterlimit:4;stroke-dasharray:none;stroke-dashoffset:78.04724884;stroke-opacity:1;paint-order:markers fill stroke"
         sodipodi:type="star" />
      <path
         inkscape:export-ydpi="373.38"
         inkscape:export-xdpi="373.38"
         sodipodi:nodetypes="ccccc"
         inkscape:connector-curvature="0"
         id="path4829-8-9-0"
         d="m 220.94004,-8.7530446 v 3.7597244 l 0.95905,-1.0046779 0.95905,1.0046779 v -3.7597244"
         style="fill:none;stroke:#ffffff;stroke-width:0.09791866;stroke-linecap:butt;stroke-linejoin:miter;stroke-miterlimit:4;stroke-dasharray:none;stroke-opacity:1" />
    </g>
    <path
       style="fill:#ffffff;fill-opacity:1;stroke:none;stroke-width:0.29976368;stroke-linecap:round;stroke-linejoin:miter;stroke-miterlimit:4;stroke-dasharray:none;stroke-opacity:1"
       d="m 169.52337,27.683234 c 2.4339,-1.819093 3.8363,1.127858 3.81106,1.100989 0.27697,-0.767606 -2.32521,-3.194657 -3.81106,-1.100989 z m -5.33825,7.819444 c 0.0514,0.03643 0.16135,0.0564 0.14417,0.647505 -0.099,0.112757 2.43552,11.964113 2.5523,7.041949 0.56651,-0.09625 0.9806,-5.019632 1.51722,-4.932516 0.53661,-0.08888 0.70061,6.004202 1.26711,6.100455 0.64288,0.109233 1.63463,-3.230395 1.96551,-5.768012 -0.48037,2.330472 -1.24312,5.088217 -1.82288,4.998574 -0.55959,-0.08652 -0.87968,-5.410912 -1.40974,-5.331017 -0.53008,-0.07831 -0.95762,4.845996 -1.51722,4.932516 -0.84138,0.130091 -2.53795,-7.400751 -2.34456,-7.529257 0.11628,-0.320452 -0.0696,-0.501991 -0.14262,-0.581877 -1.72337,-1.59605 -2.39775,-8.865323 3.16725,-8.004163 0.64614,0.103588 2.03485,1.302416 2.38124,1.30317 0.002,0.0019 -0.66428,-0.722219 -2.01584,-1.493058 -5.73278,-1.647678 -5.92773,6.044334 -3.74194,8.615731 z"
       id="path4798-3-2-0"
       inkscape:connector-curvature="0"
       sodipodi:nodetypes="cccccccccccccccccc" />
    <g
       id="g4893-8-1"
       transform="matrix(1.2089147,0,0,1.2089147,-95.466222,44.628558)"
       style="stroke:#ffffff;stroke-opacity:1">
      <path
         inkscape:export-ydpi="373.38"
         inkscape:export-xdpi="373.38"
         inkscape:transform-center-y="0.046773883"
         inkscape:transform-center-x="-0.062481186"
         d="m 223.19898,-9.1349356 c -0.0942,0.091144 -0.17198,0.4012198 -0.28654,0.4648823 -0.11456,0.063662 -0.41896,-0.03403 -0.54609,-0.00219 -0.12714,0.031842 -0.34955,0.2614763 -0.4806,0.259328 -0.13104,-0.00215 -0.34581,-0.2389494 -0.47184,-0.2749416 -0.12602,-0.035992 -0.43345,0.05167 -0.54587,-0.015713 -0.11241,-0.067383 -0.18,-0.3798424 -0.27115,-0.4740249 -0.0911,-0.094182 -0.40122,-0.1719805 -0.46488,-0.2865437 -0.0637,-0.1145632 0.034,-0.4189569 0.002,-0.5460934 -0.0318,-0.127137 -0.26148,-0.349549 -0.25933,-0.480595 0.002,-0.131046 0.23895,-0.345813 0.27494,-0.471837 0.036,-0.126025 -0.0517,-0.433457 0.0157,-0.545872 0.0674,-0.112415 0.37985,-0.180007 0.47403,-0.271152 0.0942,-0.09114 0.17198,-0.40122 0.28654,-0.464882 0.11456,-0.06366 0.41896,0.03403 0.5461,0.0022 0.12713,-0.03184 0.34954,-0.261476 0.48059,-0.259328 0.13105,0.0021 0.34581,0.238949 0.47184,0.274942 0.12602,0.03599 0.43345,-0.05167 0.54587,0.01571 0.11241,0.06738 0.18001,0.379842 0.27115,0.474025 0.0911,0.09418 0.40122,0.17198 0.46488,0.286543 0.0637,0.114563 -0.034,0.418957 -0.002,0.546094 0.0318,0.127136 0.26147,0.349549 0.25932,0.480595 -0.002,0.131046 -0.23895,0.345812 -0.27494,0.4718368 -0.036,0.1260246 0.0517,0.4334568 -0.0157,0.5458717 -0.0674,0.112415 -0.37984,0.1800075 -0.47403,0.2711519 z"
         inkscape:randomized="0"
         inkscape:rounded="0.24"
         inkscape:flatsided="false"
         sodipodi:arg2="1.0635895"
         sodipodi:arg1="0.80179014"
         sodipodi:r2="2.044672"
         sodipodi:r1="1.8402047"
         sodipodi:cy="-10.457311"
         sodipodi:cx="221.91927"
         sodipodi:sides="12"
         id="path4813-9-3-4"
         style="opacity:1;fill:none;fill-opacity:1;stroke:#ffffff;stroke-width:0.10753447;stroke-linecap:round;stroke-linejoin:miter;stroke-miterlimit:4;stroke-dasharray:none;stroke-dashoffset:78.04724884;stroke-opacity:1;paint-order:markers fill stroke"
         sodipodi:type="star" />
      <path
         inkscape:export-ydpi="373.38"
         inkscape:export-xdpi="373.38"
         sodipodi:nodetypes="ccccc"
         inkscape:connector-curvature="0"
         id="path4829-8-9-6"
         d="m 220.94004,-8.7530446 v 3.7597244 l 0.95905,-1.0046779 0.95905,1.0046779 v -3.7597244"
         style="fill:none;stroke:#ffffff;stroke-width:0.09791866;stroke-linecap:butt;stroke-linejoin:miter;stroke-miterlimit:4;stroke-dasharray:none;stroke-opacity:1" />
    </g>
  </g>
</svg>
